Data_Wrangling ·
…
The basics - tabular data examples

Here we will use an example of grocery store data.

Import data

What does the data look like?:

dummy_data <- 
  readRDS("../../static/data/data-wrangling/dummy_data.rds")

dummy_data

## # A tibble: 1,000 x 10
##    customer_no      spend_month         store_counts visits_count item_sum
##    <chr>            <dttm>                     <int>        <int>    <int>
##  1 49ef700455a56de… 2012-12-01 00:00:00            1            1        1
##  2 210d4179edb2f92… 2012-12-01 00:00:00            1            1       NA
##  3 5067ea026ecbb08… 2012-12-01 00:00:00            1            1        6
##  4 476cfbe371456be… 2012-12-01 00:00:00            1            1        4
##  5 576c5ac92f6f5ed… 2013-01-01 00:00:00            1            1        1
##  6 e076e43495962ef… 2012-12-01 00:00:00            1            1        1
##  7 0831aff4f6e02b1… 2013-02-01 00:00:00            1            1        1
##  8 8f42509147d136a… 2012-12-01 00:00:00            1            1       NA
##  9 0f7be58a4461e2d… 2013-01-01 00:00:00            1            1        4
## 10 5d519ca4395d166… 2012-12-01 00:00:00            1            1        1
## # ... with 990 more rows, and 5 more variables: discount_sum <dbl>,
## #   spend_sum <dbl>, spend_day <chr>, spend_time <chr>, spend_type <chr>
…
The basics

Widening

What if I asked you; “Show me the spend in each spend_time on a customer level”.

For a person and also for some models you will need to widen the data. By ‘widen’ we mean adding columns. Humans read better when you describe an obeservation using columns after all…

To widen this data we use the function tidyr::spread

dummy_data %>% 
  select(customer_no,spend_time,spend_sum) %>% 
  tidyr::spread(key = spend_time, value = spend_sum, fill = 0) 

## # A tibble: 998 x 6
##    customer_no                      afternoon evening lunch morning `<NA>`
##    <chr>                                <dbl>   <dbl> <dbl>   <dbl>  <dbl>
##  1 001dc4f17ad2f7999c215ac147ad9a13       0       0    0       93.0      0
##  2 0020cab9597c12589249daa13a1427a8      30.8     0    0        0        0
##  3 0068525ef1d0d392ad3e97602511551a      59.9     0    0        0        0
##  4 00d75bffda7ea469a511c891a28b2df2       0       0   25.0      0        0
##  5 011aec649b655991c2835f151188c54e       0       0    0        0        0
##  6 014dd528202b032a46564f63100ced5c       0       0    0      422        0
##  7 015392d5b1b6e0b63a4ca5ce1139d4ac       0      30.0  0        0        0
##  8 01948501615939ecb5a8c49af2ab45dd       0       0    0       13.0      0
##  9 01a86d2dba1514e5a92ecb38b408bbe8      43.8     0    0        0        0
## 10 0210fe573d0e13b2cd68cabe31d3a94c       0       0    7.90     0        0
## # ... with 988 more rows
…
