Predict house prices - deep learning, keras ·
…
    return(ret)
}

Let’s view the significant lags in the ACF and PACF

max_lag <- 100 # these are months, since our samples are sales in a month

LSTM_train %>%
    tidy_acf(value, lags = 0:max_lag)

## # A tibble: 55 x 2
##      lag       acf
##    <dbl>     <dbl>
##  1    0.  1.00    
##  2    1.  0.205   
##  3    2.  0.148   
##  4    3. -0.000328
##  5    4. -0.0990  
##  6    5.  0.0441  
##  7    6. -0.0976  
##  8    7.  0.0221  
##  9    8. -0.0316  
## 10    9. -0.124   
## # ... with 45 more rows

LSTM_train %>%
    tidy_pacf(value, lags = 0:max_lag)

## # A tibble: 54 x 2
##      lag    pacf
##    <dbl>   <dbl>
##  1    0.  0.205 
##  2    1.  0.111 
##  3    2. -0.0529
##  4    3. -0.112 
##  5    4.  0.0965
##  6    5. -0.101 
##  7    6.  0.0382
##  8    7. -0.0279
##  9    8. -0.119 
## 10    9.  0.0262
## # ... with 44 more rows
…
Scale and center the data

We can process this data using the recipes package

rec_obj <- recipe(value ~ ., df) %>%
    step_sqrt(value) %>%
    step_center(value) %>%
    step_scale(value) %>%
    prep()

df_processed_tbl <- bake(rec_obj, df)

df_processed_tbl

## # A tibble: 39 x 3
##    index        value key     
##    <date>       <dbl> <fct>   
##  1 2006-01-01  1.62   training
##  2 2006-02-01 -0.0515 training
##  3 2006-03-01 -0.186  training
##  4 2006-04-01 -0.757  training
##  5 2006-05-01 -0.778  training
##  6 2006-06-01 -0.302  training
##  7 2006-07-01 -0.791  training
##  8 2006-08-01  1.52   training
##  9 2006-09-01  1.56   training
## 10 2006-10-01 -0.699  training
## # ... with 29 more rows
…
