Predict house prices - deep learning, keras
…
    return(ret)
}

Lets view the significant lags in the ACF and PACF

max_lag <- 100 # these are months, since our samples are sales in a month

LSTM_train %>%
    tidy_acf(value, lags = 0:max_lag)

## # A tibble: 55 x 2
##      lag     acf
##    <dbl>   <dbl>
##  1    0.  1.00  
##  2    1.  0.305 
##  3    2.  0.207 
##  4    3. -0.0452
##  5    4. -0.0373
##  6    5. -0.116 
##  7    6.  0.0351
##  8    7.  0.0110
##  9    8. -0.0553
## 10    9. -0.115 
## # ... with 45 more rows

LSTM_train %>%
    tidy_pacf(value, lags = 0:max_lag)

## # A tibble: 54 x 2
##      lag     pacf
##    <dbl>    <dbl>
##  1    0.  0.305  
##  2    1.  0.126  
##  3    2. -0.156  
##  4    3. -0.0134 
##  5    4. -0.0715 
##  6    5.  0.101  
##  7    6.  0.00453
##  8    7. -0.123  
##  9    8. -0.0786 
## 10    9.  0.166  
## # ... with 44 more rows
…
Scale and center the data

We can process this data using the recipes package

rec_obj <- recipe(value ~ ., df) %>%
    step_sqrt(value) %>%
    step_center(value) %>%
    step_scale(value) %>%
    prep()

df_processed_tbl <- bake(rec_obj, df)

df_processed_tbl

## # A tibble: 27 x 3
##    index       value key     
##    <date>      <dbl> <fct>   
##  1 2006-01-01  1.22  training
##  2 2006-02-01  0.297 training
##  3 2006-03-01  0.293 training
##  4 2006-04-01 -1.77  training
##  5 2006-05-01 -1.27  training
##  6 2006-06-01 -1.03  training
##  7 2006-07-01 -0.362 training
##  8 2006-08-01  1.25  training
##  9 2006-09-01  1.66  training
## 10 2006-10-01 -1.20  training
## # ... with 17 more rows
…
