Serving a machine learning model via API ·
…
For our practical example we will build a basic caret rergession model and service it via an api so that someone can request a prediction by giving properly named inputs for the model.

Let’s predict how long an animal will sleep given some descriptors of said animal

What the data looks like:

example_data <- 
ggplot2::msleep %>% 
    select(sleep_total,vore,bodywt,brainwt,awake) %>% 
    na.omit()

example_data

## # A tibble: 51 x 5
##    sleep_total vore    bodywt  brainwt awake
##          <dbl> <chr>    <dbl>    <dbl> <dbl>
##  1       17.0  omni    0.480  0.0155    7.00
##  2       14.9  omni    0.0190 0.000290  9.10
##  3        4.00 herbi 600      0.423    20.0 
##  4       10.1  carni  14.0    0.0700   13.9 
##  5        3.00 herbi  14.8    0.0982   21.0 
##  6        5.30 herbi  33.5    0.115    18.7 
##  7        9.40 herbi   0.728  0.00550  14.6 
##  8       12.5  herbi   0.420  0.00640  11.5 
##  9       10.3  omni    0.0600 0.00100  13.7 
## 10        8.30 omni    1.00   0.00660  15.7 
## # ... with 41 more rows
…
