Dealing with nested data ·
…
For now we will do 2 things;

1. We will keep the nested fields because we could unnest and invert the data to uncover relationships between character preferences and win rates for example…

2. We will create 2 new fields to describe these nested fields.

players_cleaned_df %<>% 
  mutate(player.nr_of_languages = player.availableLanguages %>% map_int(length)) %>% 
  mutate(player.nr_of_heros = player.attributes.heroes %>% map_int(length)) 

players_cleaned_df %>% 
  select(player.id,player.nr_of_languages,player.nr_of_heros)

## # A tibble: 126 x 3
##    player.id player.nr_of_languages player.nr_of_heros
##        <int>                  <int>              <int>
##  1      3660                      1                  3
##  2      3985                      1                  2
##  3      4658                      2                  3
##  4      5717                      1                  2
##  5      3380                      1                  3
##  6      3577                      1                  3
##  7      4125                      1                  3
##  8      3969                      1                  3
##  9      4608                      1                  3
## 10      4618                      1                  3
## # ... with 116 more rows
…
