Benchmarking machine learning models in parallel ·
…
This allows us wrangle performance metric for each crossvalidation fold or bootstrap sample so that we can visualize them holistically:

Measure performance

Now that we have trained the models on the training data let’s make this table long

Model_benchmarking_table <- 
  Model_benchmarking_table %>% 
  gather(key = "model_name",value = "model_object",4:7)

Model_benchmarking_table

## # A tibble: 40 x 5
##    fold_number training_data  test           model_name    model_object
##    <chr>       <list>         <list>         <chr>         <list>      
##  1 01          <S3: resample> <S3: resample> random_forest <list [1]>  
##  2 02          <S3: resample> <S3: resample> random_forest <list [1]>  
##  3 03          <S3: resample> <S3: resample> random_forest <list [1]>  
##  4 04          <S3: resample> <S3: resample> random_forest <list [1]>  
##  5 05          <S3: resample> <S3: resample> random_forest <list [1]>  
##  6 06          <S3: resample> <S3: resample> random_forest <list [1]>  
##  7 07          <S3: resample> <S3: resample> random_forest <list [1]>  
##  8 08          <S3: resample> <S3: resample> random_forest <list [1]>  
##  9 09          <S3: resample> <S3: resample> random_forest <list [1]>  
## 10 10          <S3: resample> <S3: resample> random_forest <list [1]>  
## # ... with 30 more rows

Now we can measure accuracy by getting our predictions vs actuals and looking at the confusion matrix

Model_benchmarking_table <- 
  Model_benchmarking_table %>% 
  mutate(actuals = test %>% map(~.x %>% data.frame %>% select(Species) %>% flatten_chr)) %>% 
  mutate(predicted = map2(test,model_object, ~predict(object = .y,newdata =  as.data.frame(.x)) %>% map(as.character) %>% flatten_chr)) %>% 
  mutate(confusion_matrix = map2(actuals,predicted,~table(.x,.y))) %>% 
  mutate(Accuracy = confusion_matrix %>% map_dbl(~ diag(.x) %>% sum/sum(.x)))

Model_benchmarking_table[,4:9]

## # A tibble: 40 x 6
##    model_name    model_object actuals  predicted confusion_matrix Accuracy
##    <chr>         <list>       <list>   <list>    <list>              <dbl>
##  1 random_forest <list [1]>   <chr [1… <chr [15… <S3: table>         1.00 
##  2 random_forest <list [1]>   <chr [1… <chr [15… <S3: table>         0.933
##  3 random_forest <list [1]>   <chr [1… <chr [15… <S3: table>         0.800
##  4 random_forest <list [1]>   <chr [1… <chr [15… <S3: table>         0.933
##  5 random_forest <list [1]>   <chr [1… <chr [15… <S3: table>         1.00 
##  6 random_forest <list [1]>   <chr [1… <chr [15… <S3: table>         0.933
##  7 random_forest <list [1]>   <chr [1… <chr [15… <S3: table>         0.933
##  8 random_forest <list [1]>   <chr [1… <chr [15… <S3: table>         1.00 
##  9 random_forest <list [1]>   <chr [1… <chr [15… <S3: table>         0.933
## 10 random_forest <list [1]>   <chr [1… <chr [15… <S3: table>         1.00 
## # ... with 30 more rows
…
