…
The basics

Widening

What if I asked you; “Show me the spend in each spend_time on a customer level”.

For a person and also for some models you will need to widen the data. By ‘widen’ we mean adding columns. Humans read better when you describe an obeservation using columns after all…

To widen this data we use the function tidyr::spread

dummy_data %>% 
  select(customer_no,spend_time,spend_sum) %>% 
  tidyr::spread(key = spend_time, value = spend_sum, fill = 0) 

## # A tibble: 998 x 6
##    customer_no                      afternoon evening lunch morning `<NA>`
##    <chr>                                <dbl>   <dbl> <dbl>   <dbl>  <dbl>
##  1 001dc4f17ad2f7999c215ac147ad9a13       0       0    0       93.0      0
##  2 0020cab9597c12589249daa13a1427a8      30.8     0    0        0        0
##  3 0068525ef1d0d392ad3e97602511551a      59.9     0    0        0        0
##  4 00d75bffda7ea469a511c891a28b2df2       0       0   25.0      0        0
##  5 011aec649b655991c2835f151188c54e       0       0    0        0        0
##  6 014dd528202b032a46564f63100ced5c       0       0    0      422        0
##  7 015392d5b1b6e0b63a4ca5ce1139d4ac       0      30.0  0        0        0
##  8 01948501615939ecb5a8c49af2ab45dd       0       0    0       13.0      0
##  9 01a86d2dba1514e5a92ecb38b408bbe8      43.8     0    0        0        0
## 10 0210fe573d0e13b2cd68cabe31d3a94c       0       0    7.90     0        0
## # ... with 988 more rows
…
With the wide format we would need to plot each column individually but now we can do them altogether.

Bit of both

What if I asked you “Show me all the time interactions for numeric variables on a customer level”

Let’s look at the releavant data for spend again:

dummy_data %>% 
  select_if(is.numeric)

## # A tibble: 1,000 x 5
##    store_counts visits_count item_sum discount_sum spend_sum
##           <int>        <int>    <int>        <dbl>     <dbl>
##  1            1            1        1         0         40.0
##  2            1            1       NA         0         15.9
##  3            1            1        6         4.05      41.9
##  4            1            1        4         0        118  
##  5            1            1        1         0         NA  
##  6            1            1        1         6.90      43.2
##  7            1            1        1        NA         31.9
##  8            1            1       NA         0        186  
##  9            1            1        4        10.0       14.0
## 10            1            1        1        NA         15.0
## # ... with 990 more rows

How would I wrangle out the interactions?

Well one way is to name the interactions by gathering the relevant metrics together before we widen them

dummy_data %>% 
  select(store_counts,item_sum,discount_sum,spend_sum,customer_no,spend_time) %>% 
  gather(key = "metric", value = "value",-customer_no, -spend_time) %>% 
  mutate(interaction = paste0(spend_time,"_",metric)) %>% 
  spread(key = interaction,value = value) 

## # A tibble: 4,000 x 23
##    customer_no      spend_time metric   afternoon_discou… afternoon_item_…
##    <chr>            <chr>      <chr>                <dbl>            <dbl>
##  1 001dc4f17ad2f79… morning    discoun…              NA              NA   
##  2 001dc4f17ad2f79… morning    item_sum              NA              NA   
##  3 001dc4f17ad2f79… morning    spend_s…              NA              NA   
##  4 001dc4f17ad2f79… morning    store_c…              NA              NA   
##  5 0020cab9597c125… afternoon  discoun…              15.0            NA   
##  6 0020cab9597c125… afternoon  item_sum              NA               3.00
##  7 0020cab9597c125… afternoon  spend_s…              NA              NA   
##  8 0020cab9597c125… afternoon  store_c…              NA              NA   
##  9 0068525ef1d0d39… afternoon  discoun…              NA              NA   
## 10 0068525ef1d0d39… afternoon  item_sum              NA               5.00
## # ... with 3,990 more rows, and 18 more variables:
## #   afternoon_spend_sum <dbl>, afternoon_store_counts <dbl>,
## #   evening_discount_sum <dbl>, evening_item_sum <dbl>,
## #   evening_spend_sum <dbl>, evening_store_counts <dbl>,
## #   lunch_discount_sum <dbl>, lunch_item_sum <dbl>, lunch_spend_sum <dbl>,
## #   lunch_store_counts <dbl>, morning_discount_sum <dbl>,
## #   morning_item_sum <dbl>, morning_spend_sum <dbl>,
## #   morning_store_counts <dbl>, NA_discount_sum <dbl>, NA_item_sum <dbl>,
## #   NA_spend_sum <dbl>, NA_store_counts <dbl>
…
Changing a problem

Let’s say for instance we have the following data:

dummy_data_2 <- 
tibble(shop = LETTERS,
       churn_rate = runif(26, 0, 1),
       attrition = runif(26, 0, 1),
       join_rate = runif(26, 0, 1),
       sales = rnorm(1,mean = 5, sd = 3)*runif(26,10^2,10^4))

dummy_data_2 

## # A tibble: 26 x 5
##    shop  churn_rate attrition join_rate sales
##    <chr>      <dbl>     <dbl>     <dbl> <dbl>
##  1 A         0.816     0.0599    0.748   1782
##  2 B         0.917     0.904     0.856   1621
##  3 C         0.227     0.905     0.189  47083
##  4 D         0.0998    0.306     0.989  33752
##  5 E         0.358     0.664     0.426  38972
##  6 F         0.701     0.514     0.826  48892
##  7 G         0.0605    0.297     0.172  52671
##  8 H         0.703     0.715     0.0578  6049
##  9 I         0.216     0.556     0.0117 25885
## 10 J         0.169     0.0167    0.652  18082
## # ... with 16 more rows
…
This feels sort of ugly and returns a vector… We would prefer to remain type stable here inside a dataframe.

We could simply reshape this data so that we are infact summarizing over rows not columns:

dummy_data_2 %>% 
  gather(key = "metric", value = "value",-shop) %>% 
  group_by(shop) %>% 
  summarise(prod = value %>% prod)

## # A tibble: 26 x 2
##    shop     prod
##    <chr>   <dbl>
##  1 A        65.1
##  2 B      1151  
##  3 C      1828  
##  4 D      1022  
##  5 E      3947  
##  6 F     14552  
##  7 G       163  
##  8 H       176  
##  9 I        36.4
## 10 J        33.3
## # ... with 16 more rows
…
Put this into a dataframe:

GOT_df <-
  tibble::tibble(char_name = data_characters %>% map_chr("name"),
                 data_char = data_characters)

GOT_df

## # A tibble: 50 x 2
##    char_name data_char  
##    <chr>     <list>     
##  1 ""        <list [16]>
##  2 Walder    <list [16]>
##  3 ""        <list [16]>
##  4 ""        <list [16]>
##  5 ""        <list [16]>
##  6 ""        <list [16]>
##  7 ""        <list [16]>
##  8 ""        <list [16]>
##  9 ""        <list [16]>
## 10 ""        <list [16]>
## # ... with 40 more rows
…
