…
matches_out

## # A tibble: 1,000 x 3
##    customer_no                      match                          weights
##    <chr>                            <chr>                            <dbl>
##  1 1bc0249a6412ef49b07fe6f62e6dc8de 12b5fc7904a4ed8e390a03143b2cc…    1.00
##  2 4e87337f366f72daa424dae11df0538c 22785dd2577be2ce28ef79febe80d…    1.00
##  3 f0b1d5879866f2c2eba77f39993d1184 ca47d49b363ef094ba80bd0b8c4e0…    1.00
##  4 20546457187cf3d52ea86538403e47cc 671792587502028b6cd4be7c4d662…    1.00
##  5 cfc5d9422f0c8f8ad796711102dbe32b 1b43914f3e2e1f22b1090eb86d69f…    1.00
##  6 516341c3e8f4543c8d465b0c514a6f92 7d4ce676f04524dadbb2f1565c871…    1.00
##  7 100d5d9191f185eeb98d6e291756954a 0a4dc6dae338c9cb08947c07581f7…    1.00
##  8 7364e0bb7f15ebfbc9e12d5b13f51a02 da0dba87d95286d836e37ca60ab1e…    1.00
##  9 764f9642ebf04622c53ebc366a68c0a7 fc8ce6292e51ac8214f544324c56d…    1.00
## 10 0634ac7160d3fd64ddf19bdcbdd401bb 2cb2cdcca9bdd55a897d897ac67f7…    1.00
## # ... with 990 more rows
…
