…
And with a little bit of tidying of the data, you can have a much richer dataset

library(tidyr)
Snails %>% dist_intervals_dplyr(c("Deaths", "Exposure"), group = "Species") %>% 
  gather(key = Deaths, Metric, -Species) %>% 
  arrange(Species, Deaths)

## `summarise_each()` is deprecated.
## Use `summarise_all()`, `summarise_at()` or `summarise_if()` instead.
## To map `funs` over all variables, use `summarise_all()`

## # A tibble: 24 x 3
##    Species            Deaths     Metric
##     <fctr>             <chr>      <dbl>
##  1       A   Deaths_iqrlower -1.0000000
##  2       A   Deaths_iqrupper  2.0000000
##  3       A       Deaths_mean  1.7083333
##  4       A     Deaths_median  0.5000000
##  5       A    Deaths_sdlower -0.5320915
##  6       A    Deaths_sdupper  3.9487582
##  7       A Exposure_iqrlower  1.7500000
##  8       A Exposure_iqrupper  3.2500000
##  9       A     Exposure_mean  2.5000000
## 10       A   Exposure_median  2.5000000
## # ... with 14 more rows
…
