…
For our practical example we will build a basic caret rergession model and service it via an api so that someone can request a prediction by giving properly named inputs for the model.

Let’s predict how long an animal will sleep given some descriptors of said animal

What the data looks like:

example_data <- 
ggplot2::msleep %>% 
    select(sleep_total,vore,bodywt,brainwt,awake) %>% 
    na.omit()

example_data

## # A tibble: 51 x 5
##    sleep_total vore   bodywt brainwt awake
##          <dbl> <chr>   <dbl>   <dbl> <dbl>
##  1        17   omni    0.48  0.0155    7  
##  2        14.9 omni    0.019 0.00029   9.1
##  3         4   herbi 600     0.423    20  
##  4        10.1 carni  14     0.07     13.9
##  5         3   herbi  14.8   0.0982   21  
##  6         5.3 herbi  33.5   0.115    18.7
##  7         9.4 herbi   0.728 0.0055   14.6
##  8        12.5 herbi   0.42  0.0064   11.5
##  9        10.3 omni    0.06  0.001    13.7
## 10         8.3 omni    1     0.0066   15.7
## # ... with 41 more rows
…
